172.31.0.1 - - [28/Feb/2019:14:14:21 +0000] "GET / HTTP/1.1" 403 571 "-" "Mozilla/5.0 (X11; Linux x86_64) AppleWebKit/537.36 (KHTML, like Gecko) Chrome/63.0.3239.132 Safari/537.36"
172.31.0.1 - - [28/Feb/2019:14:14:21 +0000] "GET /favicon.ico HTTP/1.1" 404 571 "http://127.0.0.1:88/" "Mozilla/5.0 (X11; Linux x86_64) AppleWebKit/537.36 (KHTML, like Gecko) Chrome/63.0.3239.132 Safari/537.36"
172.31.0.1 - - [28/Feb/2019:14:14:25 +0000] "GET / HTTP/1.1" 403 571 "-" "Mozilla/5.0 (X11; Linux x86_64) AppleWebKit/537.36 (KHTML, like Gecko) Chrome/63.0.3239.132 Safari/537.36"
172.31.0.1 - - [28/Feb/2019:14:16:21 +0000] "GET / HTTP/1.1" 200 19 "-" "Mozilla/5.0 (X11; Linux x86_64) AppleWebKit/537.36 (KHTML, like Gecko) Chrome/63.0.3239.132 Safari/537.36"
172.31.0.1 - - [28/Feb/2019:14:16:23 +0000] "GET / HTTP/1.1" 200 19 "-" "Mozilla/5.0 (X11; Linux x86_64) AppleWebKit/537.36 (KHTML, like Gecko) Chrome/63.0.3239.132 Safari/537.36"
172.31.0.1 - - [28/Feb/2019:14:16:23 +0000] "GET / HTTP/1.1" 200 19 "-" "Mozilla/5.0 (X11; Linux x86_64) AppleWebKit/537.36 (KHTML, like Gecko) Chrome/63.0.3239.132 Safari/537.36"
172.31.0.1 - - [28/Feb/2019:14:16:24 +0000] "GET / HTTP/1.1" 200 19 "-" "Mozilla/5.0 (X11; Linux x86_64) AppleWebKit/537.36 (KHTML, like Gecko) Chrome/63.0.3239.132 Safari/537.36"
172.31.0.1 - - [28/Feb/2019:14:16:24 +0000] "GET / HTTP/1.1" 200 19 "-" "Mozilla/5.0 (X11; Linux x86_64) AppleWebKit/537.36 (KHTML, like Gecko) Chrome/63.0.3239.132 Safari/537.36"
172.31.0.1 - - [28/Feb/2019:14:16:24 +0000] "GET / HTTP/1.1" 200 19 "-" "Mozilla/5.0 (X11; Linux x86_64) AppleWebKit/537.36 (KHTML, like Gecko) Chrome/63.0.3239.132 Safari/537.36"
172.31.0.1 - - [28/Feb/2019:14:17:48 +0000] "GET / HTTP/1.1" 200 36 "-" "Mozilla/5.0 (X11; Linux x86_64) AppleWebKit/537.36 (KHTML, like Gecko) Chrome/63.0.3239.132 Safari/537.36"
172.31.0.1 - - [28/Feb/2019:14:17:49 +0000] "GET / HTTP/1.1" 200 35 "-" "Mozilla/5.0 (X11; Linux x86_64) AppleWebKit/537.36 (KHTML, like Gecko) Chrome/63.0.3239.132 Safari/537.36"
172.31.0.1 - - [28/Feb/2019:14:17:49 +0000] "GET / HTTP/1.1" 200 35 "-" "Mozilla/5.0 (X11; Linux x86_64) AppleWebKit/537.36 (KHTML, like Gecko) Chrome/63.0.3239.132 Safari/537.36"
172.31.0.1 - - [28/Feb/2019:14:17:49 +0000] "GET / HTTP/1.1" 200 35 "-" "Mozilla/5.0 (X11; Linux x86_64) AppleWebKit/537.36 (KHTML, like Gecko) Chrome/63.0.3239.132 Safari/537.36"
172.31.0.1 - - [28/Feb/2019:14:17:49 +0000] "GET / HTTP/1.1" 200 35 "-" "Mozilla/5.0 (X11; Linux x86_64) AppleWebKit/537.36 (KHTML, like Gecko) Chrome/63.0.3239.132 Safari/537.36"
